Malaysia Census 2020 by Administrative District
…
Code

list_dpinfo$Kelantan$`Kecil Lojing`

$district_code
[1] 11

$ngdp_code
[1] "0311"

$censusdata
# A tibble: 28 × 13
   state_code state_name district_code district_name ngdp_code parameter        
        <int> <chr>              <int> <chr>         <chr>     <chr>            
 1          3 Kelantan              11 Kecil Lojing  0311      Pop_GenderTotal  
 2          3 Kelantan              11 Kecil Lojing  0311      Pop_GenderMale   
 3          3 Kelantan              11 Kecil Lojing  0311      Pop_GenderFemale 
 4          3 Kelantan              11 Kecil Lojing  0311      Pop_CitizenshipC…
 5          3 Kelantan              11 Kecil Lojing  0311      Pop_CitizenshipN…
 6          3 Kelantan              11 Kecil Lojing  0311      AnnualPopGrowthR…
 7          3 Kelantan              11 Kecil Lojing  0311      Pop_EthnicMalay  
 8          3 Kelantan              11 Kecil Lojing  0311      Pop_EthnicOtherB…
 9          3 Kelantan              11 Kecil Lojing  0311      Pop_EthnicChinese
10          3 Kelantan              11 Kecil Lojing  0311      Pop_EthnicIndian 
# ℹ 18 more rows
# ℹ 7 more variables: census_1 <chr>, census_1970 <chr>, census_1980 <chr>,
#   census_1991 <chr>, census_2000 <chr>, census_2010 <chr>, census_2020 <chr>
…
Code

list_dpinfo$Melaka$`Alor Gajah`

$district_code
[1] 1

$ngdp_code
[1] "0401"

$censusdata
# A tibble: 28 × 13
   state_code state_name district_code district_name ngdp_code parameter        
        <int> <chr>              <int> <chr>         <chr>     <chr>            
 1          4 Melaka                 1 Alor Gajah    0401      Pop_GenderTotal  
 2          4 Melaka                 1 Alor Gajah    0401      Pop_GenderMale   
 3          4 Melaka                 1 Alor Gajah    0401      Pop_GenderFemale 
 4          4 Melaka                 1 Alor Gajah    0401      Pop_CitizenshipC…
 5          4 Melaka                 1 Alor Gajah    0401      Pop_CitizenshipN…
 6          4 Melaka                 1 Alor Gajah    0401      AnnualPopGrowthR…
 7          4 Melaka                 1 Alor Gajah    0401      Pop_EthnicMalay  
 8          4 Melaka                 1 Alor Gajah    0401      Pop_EthnicOtherB…
 9          4 Melaka                 1 Alor Gajah    0401      Pop_EthnicChinese
10          4 Melaka                 1 Alor Gajah    0401      Pop_EthnicIndian 
# ℹ 18 more rows
# ℹ 7 more variables: census_1 <chr>, census_1970 <chr>, census_1980 <chr>,
#   census_1991 <chr>, census_2000 <chr>, census_2010 <chr>, census_2020 <chr>
…
Code

list_dpinfo$`Negeri Sembilan`$Jempol

$district_code
[1] 7

$ngdp_code
[1] "0507"

$censusdata
# A tibble: 28 × 13
   state_code state_name      district_code district_name ngdp_code parameter   
        <int> <chr>                   <int> <chr>         <chr>     <chr>       
 1          5 Negeri Sembilan             7 Jempol        0507      Pop_GenderT…
 2          5 Negeri Sembilan             7 Jempol        0507      Pop_GenderM…
 3          5 Negeri Sembilan             7 Jempol        0507      Pop_GenderF…
 4          5 Negeri Sembilan             7 Jempol        0507      Pop_Citizen…
 5          5 Negeri Sembilan             7 Jempol        0507      Pop_Citizen…
 6          5 Negeri Sembilan             7 Jempol        0507      AnnualPopGr…
 7          5 Negeri Sembilan             7 Jempol        0507      Pop_EthnicM…
 8          5 Negeri Sembilan             7 Jempol        0507      Pop_EthnicO…
 9          5 Negeri Sembilan             7 Jempol        0507      Pop_EthnicC…
10          5 Negeri Sembilan             7 Jempol        0507      Pop_EthnicI…
# ℹ 18 more rows
# ℹ 7 more variables: census_1 <chr>, census_1970 <chr>, census_1980 <chr>,
#   census_1991 <chr>, census_2000 <chr>, census_2010 <chr>, census_2020 <chr>
…
Code

list_dpinfo$Pahang$Bera

$district_code
[1] 11

$ngdp_code
[1] "0611"

$censusdata
# A tibble: 28 × 13
   state_code state_name district_code district_name ngdp_code parameter        
        <int> <chr>              <int> <chr>         <chr>     <chr>            
 1          6 Pahang                11 Bera          0611      Pop_GenderTotal  
 2          6 Pahang                11 Bera          0611      Pop_GenderMale   
 3          6 Pahang                11 Bera          0611      Pop_GenderFemale 
 4          6 Pahang                11 Bera          0611      Pop_CitizenshipC…
 5          6 Pahang                11 Bera          0611      Pop_CitizenshipN…
 6          6 Pahang                11 Bera          0611      AnnualPopGrowthR…
 7          6 Pahang                11 Bera          0611      Pop_EthnicMalay  
 8          6 Pahang                11 Bera          0611      Pop_EthnicOtherB…
 9          6 Pahang                11 Bera          0611      Pop_EthnicChinese
10          6 Pahang                11 Bera          0611      Pop_EthnicIndian 
# ℹ 18 more rows
# ℹ 7 more variables: census_1 <chr>, census_1970 <chr>, census_1980 <chr>,
#   census_1991 <chr>, census_2000 <chr>, census_2010 <chr>, census_2020 <chr>
…
Code

list_dpinfo$`Pulau Pinang`$`Barat Daya`

$district_code
[1] 5

$ngdp_code
[1] "0705"

$censusdata
# A tibble: 28 × 13
   state_code state_name   district_code district_name ngdp_code parameter      
        <int> <chr>                <int> <chr>         <chr>     <chr>          
 1          7 Pulau Pinang             5 Barat Daya    0705      Pop_GenderTotal
 2          7 Pulau Pinang             5 Barat Daya    0705      Pop_GenderMale 
 3          7 Pulau Pinang             5 Barat Daya    0705      Pop_GenderFema…
 4          7 Pulau Pinang             5 Barat Daya    0705      Pop_Citizenshi…
 5          7 Pulau Pinang             5 Barat Daya    0705      Pop_Citizenshi…
 6          7 Pulau Pinang             5 Barat Daya    0705      AnnualPopGrowt…
 7          7 Pulau Pinang             5 Barat Daya    0705      Pop_EthnicMalay
 8          7 Pulau Pinang             5 Barat Daya    0705      Pop_EthnicOthe…
 9          7 Pulau Pinang             5 Barat Daya    0705      Pop_EthnicChin…
10          7 Pulau Pinang             5 Barat Daya    0705      Pop_EthnicIndi…
# ℹ 18 more rows
# ℹ 7 more variables: census_1 <chr>, census_1970 <chr>, census_1980 <chr>,
#   census_1991 <chr>, census_2000 <chr>, census_2010 <chr>, census_2020 <chr>
…
Code

list_dpinfo$Perak$Selama

$district_code
[1] 13

$ngdp_code
[1] "0813"

$censusdata
# A tibble: 28 × 13
   state_code state_name district_code district_name ngdp_code parameter        
        <int> <chr>              <int> <chr>         <chr>     <chr>            
 1          8 Perak                 13 Selama        0813      Pop_GenderTotal  
 2          8 Perak                 13 Selama        0813      Pop_GenderMale   
 3          8 Perak                 13 Selama        0813      Pop_GenderFemale 
 4          8 Perak                 13 Selama        0813      Pop_CitizenshipC…
 5          8 Perak                 13 Selama        0813      Pop_CitizenshipN…
 6          8 Perak                 13 Selama        0813      AnnualPopGrowthR…
 7          8 Perak                 13 Selama        0813      Pop_EthnicMalay  
 8          8 Perak                 13 Selama        0813      Pop_EthnicOtherB…
 9          8 Perak                 13 Selama        0813      Pop_EthnicChinese
10          8 Perak                 13 Selama        0813      Pop_EthnicIndian 
# ℹ 18 more rows
# ℹ 7 more variables: census_1 <chr>, census_1970 <chr>, census_1980 <chr>,
#   census_1991 <chr>, census_2000 <chr>, census_2010 <chr>, census_2020 <chr>
…
Code

list_dpinfo$Perlis$Perlis

$district_code
[1] 1

$ngdp_code
[1] "0901"

$censusdata
# A tibble: 28 × 13
   state_code state_name district_code district_name ngdp_code parameter        
        <int> <chr>              <int> <chr>         <chr>     <chr>            
 1          9 Perlis                 1 Perlis        0901      Pop_GenderTotal  
 2          9 Perlis                 1 Perlis        0901      Pop_GenderMale   
 3          9 Perlis                 1 Perlis        0901      Pop_GenderFemale 
 4          9 Perlis                 1 Perlis        0901      Pop_CitizenshipC…
 5          9 Perlis                 1 Perlis        0901      Pop_CitizenshipN…
 6          9 Perlis                 1 Perlis        0901      AnnualPopGrowthR…
 7          9 Perlis                 1 Perlis        0901      Pop_EthnicMalay  
 8          9 Perlis                 1 Perlis        0901      Pop_EthnicOtherB…
 9          9 Perlis                 1 Perlis        0901      Pop_EthnicChinese
10          9 Perlis                 1 Perlis        0901      Pop_EthnicIndian 
# ℹ 18 more rows
# ℹ 7 more variables: census_1 <chr>, census_1970 <chr>, census_1980 <chr>,
#   census_1991 <chr>, census_2000 <chr>, census_2010 <chr>, census_2020 <chr>
…
Code

list_dpinfo$Selangor$`Ulu Selangor`

$district_code
[1] 9

$ngdp_code
[1] "1009"

$censusdata
# A tibble: 28 × 13
   state_code state_name district_code district_name ngdp_code parameter        
        <int> <chr>              <int> <chr>         <chr>     <chr>            
 1         10 Selangor               9 Ulu Selangor  1009      Pop_GenderTotal  
 2         10 Selangor               9 Ulu Selangor  1009      Pop_GenderMale   
 3         10 Selangor               9 Ulu Selangor  1009      Pop_GenderFemale 
 4         10 Selangor               9 Ulu Selangor  1009      Pop_CitizenshipC…
 5         10 Selangor               9 Ulu Selangor  1009      Pop_CitizenshipN…
 6         10 Selangor               9 Ulu Selangor  1009      AnnualPopGrowthR…
 7         10 Selangor               9 Ulu Selangor  1009      Pop_EthnicMalay  
 8         10 Selangor               9 Ulu Selangor  1009      Pop_EthnicOtherB…
 9         10 Selangor               9 Ulu Selangor  1009      Pop_EthnicChinese
10         10 Selangor               9 Ulu Selangor  1009      Pop_EthnicIndian 
# ℹ 18 more rows
# ℹ 7 more variables: census_1 <chr>, census_1970 <chr>, census_1980 <chr>,
#   census_1991 <chr>, census_2000 <chr>, census_2010 <chr>, census_2020 <chr>
…
Code

list_dpinfo$Terengganu$`Kuala Nerus`

$district_code
[1] 8

$ngdp_code
[1] "1108"

$censusdata
# A tibble: 28 × 13
   state_code state_name district_code district_name ngdp_code parameter        
        <int> <chr>              <int> <chr>         <chr>     <chr>            
 1         11 Terengganu             8 Kuala Nerus   1108      Pop_GenderTotal  
 2         11 Terengganu             8 Kuala Nerus   1108      Pop_GenderMale   
 3         11 Terengganu             8 Kuala Nerus   1108      Pop_GenderFemale 
 4         11 Terengganu             8 Kuala Nerus   1108      Pop_CitizenshipC…
 5         11 Terengganu             8 Kuala Nerus   1108      Pop_CitizenshipN…
 6         11 Terengganu             8 Kuala Nerus   1108      AnnualPopGrowthR…
 7         11 Terengganu             8 Kuala Nerus   1108      Pop_EthnicMalay  
 8         11 Terengganu             8 Kuala Nerus   1108      Pop_EthnicOtherB…
 9         11 Terengganu             8 Kuala Nerus   1108      Pop_EthnicChinese
10         11 Terengganu             8 Kuala Nerus   1108      Pop_EthnicIndian 
# ℹ 18 more rows
# ℹ 7 more variables: census_1 <chr>, census_1970 <chr>, census_1980 <chr>,
#   census_1991 <chr>, census_2000 <chr>, census_2010 <chr>, census_2020 <chr>
…
Code

list_dpinfo$Sabah$Kalabakan

$district_code
[1] 27

$ngdp_code
[1] "1227"

$censusdata
# A tibble: 28 × 13
   state_code state_name district_code district_name ngdp_code parameter        
        <int> <chr>              <int> <chr>         <chr>     <chr>            
 1         12 Sabah                 27 Kalabakan     1227      Pop_GenderTotal  
 2         12 Sabah                 27 Kalabakan     1227      Pop_GenderMale   
 3         12 Sabah                 27 Kalabakan     1227      Pop_GenderFemale 
 4         12 Sabah                 27 Kalabakan     1227      Pop_CitizenshipC…
 5         12 Sabah                 27 Kalabakan     1227      Pop_CitizenshipN…
 6         12 Sabah                 27 Kalabakan     1227      AnnualPopGrowthR…
 7         12 Sabah                 27 Kalabakan     1227      Pop_EthnicMalay  
 8         12 Sabah                 27 Kalabakan     1227      Pop_EthnicOtherB…
 9         12 Sabah                 27 Kalabakan     1227      Pop_EthnicChinese
10         12 Sabah                 27 Kalabakan     1227      Pop_EthnicIndian 
# ℹ 18 more rows
# ℹ 7 more variables: census_1 <chr>, census_1970 <chr>, census_1980 <chr>,
#   census_1991 <chr>, census_2000 <chr>, census_2010 <chr>, census_2020 <chr>
…
Code

list_dpinfo$Sarawak$`Telang Usan`

$district_code
[1] 40

$ngdp_code
[1] "1340"

$censusdata
# A tibble: 28 × 13
   state_code state_name district_code district_name ngdp_code parameter        
        <int> <chr>              <int> <chr>         <chr>     <chr>            
 1         13 Sarawak               40 Telang Usan   1340      Pop_GenderTotal  
 2         13 Sarawak               40 Telang Usan   1340      Pop_GenderMale   
 3         13 Sarawak               40 Telang Usan   1340      Pop_GenderFemale 
 4         13 Sarawak               40 Telang Usan   1340      Pop_CitizenshipC…
 5         13 Sarawak               40 Telang Usan   1340      Pop_CitizenshipN…
 6         13 Sarawak               40 Telang Usan   1340      AnnualPopGrowthR…
 7         13 Sarawak               40 Telang Usan   1340      Pop_EthnicMalay  
 8         13 Sarawak               40 Telang Usan   1340      Pop_EthnicOtherB…
 9         13 Sarawak               40 Telang Usan   1340      Pop_EthnicChinese
10         13 Sarawak               40 Telang Usan   1340      Pop_EthnicIndian 
# ℹ 18 more rows
# ℹ 7 more variables: census_1 <chr>, census_1970 <chr>, census_1980 <chr>,
#   census_1991 <chr>, census_2000 <chr>, census_2010 <chr>, census_2020 <chr>
…
Code

list_dpinfo$`WP Kuala Lumpur`$`WP Kuala Lumpur`

$district_code
[1] 1

$ngdp_code
[1] "1401"

$censusdata
# A tibble: 28 × 13
   state_code state_name      district_code district_name   ngdp_code parameter 
        <int> <chr>                   <int> <chr>           <chr>     <chr>     
 1         14 WP Kuala Lumpur             1 WP Kuala Lumpur 1401      Pop_Gende…
 2         14 WP Kuala Lumpur             1 WP Kuala Lumpur 1401      Pop_Gende…
 3         14 WP Kuala Lumpur             1 WP Kuala Lumpur 1401      Pop_Gende…
 4         14 WP Kuala Lumpur             1 WP Kuala Lumpur 1401      Pop_Citiz…
 5         14 WP Kuala Lumpur             1 WP Kuala Lumpur 1401      Pop_Citiz…
 6         14 WP Kuala Lumpur             1 WP Kuala Lumpur 1401      AnnualPop…
 7         14 WP Kuala Lumpur             1 WP Kuala Lumpur 1401      Pop_Ethni…
 8         14 WP Kuala Lumpur             1 WP Kuala Lumpur 1401      Pop_Ethni…
 9         14 WP Kuala Lumpur             1 WP Kuala Lumpur 1401      Pop_Ethni…
10         14 WP Kuala Lumpur             1 WP Kuala Lumpur 1401      Pop_Ethni…
# ℹ 18 more rows
# ℹ 7 more variables: census_1 <chr>, census_1970 <chr>, census_1980 <chr>,
#   census_1991 <chr>, census_2000 <chr>, census_2010 <chr>, census_2020 <chr>
…
Code

list_dpinfo$`WP Labuan`$`WP Labuan`

$district_code
[1] 1

$ngdp_code
[1] "1501"

$censusdata
# A tibble: 28 × 13
   state_code state_name district_code district_name ngdp_code parameter        
        <int> <chr>              <int> <chr>         <chr>     <chr>            
 1         15 WP Labuan              1 WP Labuan     1501      Pop_GenderTotal  
 2         15 WP Labuan              1 WP Labuan     1501      Pop_GenderMale   
 3         15 WP Labuan              1 WP Labuan     1501      Pop_GenderFemale 
 4         15 WP Labuan              1 WP Labuan     1501      Pop_CitizenshipC…
 5         15 WP Labuan              1 WP Labuan     1501      Pop_CitizenshipN…
 6         15 WP Labuan              1 WP Labuan     1501      AnnualPopGrowthR…
 7         15 WP Labuan              1 WP Labuan     1501      Pop_EthnicMalay  
 8         15 WP Labuan              1 WP Labuan     1501      Pop_EthnicOtherB…
 9         15 WP Labuan              1 WP Labuan     1501      Pop_EthnicChinese
10         15 WP Labuan              1 WP Labuan     1501      Pop_EthnicIndian 
# ℹ 18 more rows
# ℹ 7 more variables: census_1 <chr>, census_1970 <chr>, census_1980 <chr>,
#   census_1991 <chr>, census_2000 <chr>, census_2010 <chr>, census_2020 <chr>
…
Code

list_dpinfo$`WP Putrajaya`$`WP Putrajaya`

$district_code
[1] 1

$ngdp_code
[1] "1601"

$censusdata
# A tibble: 28 × 13
   state_code state_name   district_code district_name ngdp_code parameter      
        <int> <chr>                <int> <chr>         <chr>     <chr>          
 1         16 WP Putrajaya             1 WP Putrajaya  1601      Pop_GenderTotal
 2         16 WP Putrajaya             1 WP Putrajaya  1601      Pop_GenderMale 
 3         16 WP Putrajaya             1 WP Putrajaya  1601      Pop_GenderFema…
 4         16 WP Putrajaya             1 WP Putrajaya  1601      Pop_Citizenshi…
 5         16 WP Putrajaya             1 WP Putrajaya  1601      Pop_Citizenshi…
 6         16 WP Putrajaya             1 WP Putrajaya  1601      AnnualPopGrowt…
 7         16 WP Putrajaya             1 WP Putrajaya  1601      Pop_EthnicMalay
 8         16 WP Putrajaya             1 WP Putrajaya  1601      Pop_EthnicOthe…
 9         16 WP Putrajaya             1 WP Putrajaya  1601      Pop_EthnicChin…
10         16 WP Putrajaya             1 WP Putrajaya  1601      Pop_EthnicIndi…
# ℹ 18 more rows
# ℹ 7 more variables: census_1 <chr>, census_1970 <chr>, census_1980 <chr>,
#   census_1991 <chr>, census_2000 <chr>, census_2010 <chr>, census_2020 <chr>
…
